{
	"process_id" : 1783,
	"version" : "2022.2.16f1",
	"app_path" : "/Applications/Unity/Hub/Editor/2022.2.16f1/Unity.app",
	"app_contents_path" : "/Applications/Unity/Hub/Editor/2022.2.16f1/Unity.app/Contents"
}